Zsofia Flora Hauk’s Dissertation
…
Do solos’ re-use the same label during the Check Phase?

check <- solos %>% 
  filter(block == "check") %>% 
  group_by(participant_id) %>% 
  select(participant_id, block, shuffled_context2, foil2)
expansion <- solos %>% 
  filter(block == "expansion") %>% 
  group_by(participant_id) %>% 
  select(participant_id, block, target, director_label) 
everything_solos <- rbind(expansion, check)
everything_solos

# A tibble: 287 × 6
# Groups:   participant_id [6]
   participant_id block     target      director_label shuffled_context2 foil2
   <chr>          <chr>     <chr>       <chr>          <chr>             <chr>
 1 06vod7xnwc     expansion blue_blob   kela           <NA>              <NA> 
 2 06vod7xnwc     expansion blue_oval   nonoki         <NA>              <NA> 
 3 06vod7xnwc     expansion red_oval    nonoke         <NA>              <NA> 
 4 06vod7xnwc     expansion blue_rect   monola         <NA>              <NA> 
 5 06vod7xnwc     expansion grey_blob   kiwa           <NA>              <NA> 
 6 06vod7xnwc     expansion yellow_blob kela           <NA>              <NA> 
 7 06vod7xnwc     expansion blue_rect   monola         <NA>              <NA> 
 8 06vod7xnwc     expansion yellow_star lowa           <NA>              <NA> 
 9 06vod7xnwc     expansion yellow_rect monowa         <NA>              <NA> 
10 06vod7xnwc     expansion red_blob    lowa           <NA>              <NA> 
# ℹ 277 more rows
…
newbetter_longer <- newbetter_wider_solos |>
  pivot_longer(
    cols = c("e1_e2", "e2_c1"),
    names_to = "comparison",
    values_to = "label"
  )

newbetter_longer

# A tibble: 192 × 7
# Groups:   participant_id, target [96]
   participant_id target    expansion_1 expansion_2 check_1 comparison label
   <chr>          <chr>     <chr>       <chr>       <chr>   <chr>      <chr>
 1 06vod7xnwc     blue_blob kela        powa        monopo  e1_e2      DIFF 
 2 06vod7xnwc     blue_blob kela        powa        monopo  e2_c1      DIFF 
 3 06vod7xnwc     blue_oval nonoki      kewa        powa    e1_e2      DIFF 
 4 06vod7xnwc     blue_oval nonoki      kewa        powa    e2_c1      DIFF 
 5 06vod7xnwc     red_oval  nonoke      kemo        monola  e1_e2      DIFF 
 6 06vod7xnwc     red_oval  nonoke      kemo        monola  e2_c1      DIFF 
 7 06vod7xnwc     blue_rect monola      monola      lowa    e1_e2      SAME 
 8 06vod7xnwc     blue_rect monola      monola      lowa    e2_c1      DIFF 
 9 06vod7xnwc     grey_blob kiwa        kelo        monoke  e1_e2      DIFF 
10 06vod7xnwc     grey_blob kiwa        kelo        monoke  e2_c1      DIFF 
# ℹ 182 more rows
…
#- Pivot longer the SAME/DIFF data

newbetter_longer <- newbetter_longer |>
  mutate(
    Same_num = ifelse(label == "SAME", 1, 0)
  )
newbetter_longer

# A tibble: 192 × 8
# Groups:   participant_id, target [96]
   participant_id target    expansion_1 expansion_2 check_1 comparison label
   <chr>          <chr>     <chr>       <chr>       <chr>   <chr>      <chr>
 1 06vod7xnwc     blue_blob kela        powa        monopo  e1_e2      DIFF 
 2 06vod7xnwc     blue_blob kela        powa        monopo  e2_c1      DIFF 
 3 06vod7xnwc     blue_oval nonoki      kewa        powa    e1_e2      DIFF 
 4 06vod7xnwc     blue_oval nonoki      kewa        powa    e2_c1      DIFF 
 5 06vod7xnwc     red_oval  nonoke      kemo        monola  e1_e2      DIFF 
 6 06vod7xnwc     red_oval  nonoke      kemo        monola  e2_c1      DIFF 
 7 06vod7xnwc     blue_rect monola      monola      lowa    e1_e2      SAME 
 8 06vod7xnwc     blue_rect monola      monola      lowa    e2_c1      DIFF 
 9 06vod7xnwc     grey_blob kiwa        kelo        monoke  e1_e2      DIFF 
10 06vod7xnwc     grey_blob kiwa        kelo        monoke  e2_c1      DIFF 
# ℹ 182 more rows
# ℹ 1 more variable: Same_num <dbl>
…
expansiondyads <- dyads %>% 
  filter(block == "interaction") %>% 
  group_by(participant_id) %>% 
  select(participant_id, block, target, director_label) 
new_dyads <- expansiondyads[c('participant_id', 'block', 'target', 'director_label')]

new_dyads <- new_dyads |>
  group_by(participant_id, block, target) |>
  mutate(
    rep = row_number()
  ) |>
  unite("block", block, rep)
new_dyads

# A tibble: 320 × 4
# Groups:   participant_id, target [160]
   participant_id block         target      director_label
   <chr>          <chr>         <chr>       <chr>         
 1 3bnro4kfnw     interaction_1 yellow_star lono          
 2 3bnro4kfnw     interaction_1 red_star    lono          
 3 3bnro4kfnw     interaction_1 blue_star   lono          
 4 3bnro4kfnw     interaction_1 yellow_rect mopola        
 5 3bnro4kfnw     interaction_1 red_blob    kewa          
 6 3bnro4kfnw     interaction_1 grey_blob   kewa          
 7 3bnro4kfnw     interaction_1 grey_oval   nunuki        
 8 3bnro4kfnw     interaction_1 grey_rect   kewanunuki    
 9 3bnro4kfnw     interaction_1 yellow_blob kewa          
10 3bnro4kfnw     interaction_2 grey_oval   nunukinunuki  
# ℹ 310 more rows

newbetter_wider_dyads <- new_dyads |>
  pivot_wider(names_from = block, values_from = director_label)

newbetter_wider_dyads <- newbetter_wider_dyads |>
  mutate(
      i1_i2 = ifelse(interaction_1 == interaction_2, "SAME", "DIFF"),
  )
newbetter_wider_dyads

# A tibble: 160 × 5
# Groups:   participant_id, target [160]
   participant_id target      interaction_1 interaction_2 i1_i2
   <chr>          <chr>       <chr>         <chr>         <chr>
 1 3bnro4kfnw     yellow_star lono          kewalono      DIFF 
 2 3bnro4kfnw     red_star    lono          lonokewa      DIFF 
 3 3bnro4kfnw     blue_star   lono          lononunupo    DIFF 
 4 3bnro4kfnw     yellow_rect mopola        kewamopola    DIFF 
 5 3bnro4kfnw     red_blob    kewa          lonokewa      DIFF 
 6 3bnro4kfnw     grey_blob   kewa          kewanunuki    DIFF 
 7 3bnro4kfnw     grey_oval   nunuki        nunukinunuki  DIFF 
 8 3bnro4kfnw     grey_rect   kewanunuki    nunukimopola  DIFF 
 9 3bnro4kfnw     yellow_blob kewa          kewa          SAME 
10 3bnro4kfnw     red_rect    lonomopola    lonomopola    SAME 
# ℹ 150 more rows

newbetter_longer_dyads <- newbetter_wider_dyads |>
  pivot_longer(
    cols = c("i1_i2"),
    names_to = "comparison",
    values_to = "label"
  )
newbetter_longer_dyads

# A tibble: 160 × 6
# Groups:   participant_id, target [160]
   participant_id target      interaction_1 interaction_2 comparison label
   <chr>          <chr>       <chr>         <chr>         <chr>      <chr>
 1 3bnro4kfnw     yellow_star lono          kewalono      i1_i2      DIFF 
 2 3bnro4kfnw     red_star    lono          lonokewa      i1_i2      DIFF 
 3 3bnro4kfnw     blue_star   lono          lononunupo    i1_i2      DIFF 
 4 3bnro4kfnw     yellow_rect mopola        kewamopola    i1_i2      DIFF 
 5 3bnro4kfnw     red_blob    kewa          lonokewa      i1_i2      DIFF 
 6 3bnro4kfnw     grey_blob   kewa          kewanunuki    i1_i2      DIFF 
 7 3bnro4kfnw     grey_oval   nunuki        nunukinunuki  i1_i2      DIFF 
 8 3bnro4kfnw     grey_rect   kewanunuki    nunukimopola  i1_i2      DIFF 
 9 3bnro4kfnw     yellow_blob kewa          kewa          i1_i2      SAME 
10 3bnro4kfnw     red_rect    lonomopola    lonomopola    i1_i2      SAME 
# ℹ 150 more rows
…
#- Pivot longer the SAME/DIFF data

newbetter_longer_dyads <- newbetter_longer_dyads |>
  mutate(
    Same_num = ifelse(label == "SAME", 1, 0)
  )
newbetter_longer_dyads

# A tibble: 160 × 7
# Groups:   participant_id, target [160]
   participant_id target   interaction_1 interaction_2 comparison label Same_num
   <chr>          <chr>    <chr>         <chr>         <chr>      <chr>    <dbl>
 1 3bnro4kfnw     yellow_… lono          kewalono      i1_i2      DIFF         0
 2 3bnro4kfnw     red_star lono          lonokewa      i1_i2      DIFF         0
 3 3bnro4kfnw     blue_st… lono          lononunupo    i1_i2      DIFF         0
 4 3bnro4kfnw     yellow_… mopola        kewamopola    i1_i2      DIFF         0
 5 3bnro4kfnw     red_blob kewa          lonokewa      i1_i2      DIFF         0
 6 3bnro4kfnw     grey_bl… kewa          kewanunuki    i1_i2      DIFF         0
 7 3bnro4kfnw     grey_ov… nunuki        nunukinunuki  i1_i2      DIFF         0
 8 3bnro4kfnw     grey_re… kewanunuki    nunukimopola  i1_i2      DIFF         0
 9 3bnro4kfnw     yellow_… kewa          kewa          i1_i2      SAME         1
10 3bnro4kfnw     red_rect lonomopola    lonomopola    i1_i2      SAME         1
# ℹ 150 more rows
…
